﻿Birth Month;Country;Subject;Average score;Standard error
1;Saudi Arabia;Reading;404,91306;5,4160458
2;Saudi Arabia;Reading;404,89264;5,4568058
3;Saudi Arabia;Reading;401,62949;4,5603919
4;Saudi Arabia;Reading;408,6747;3,9761613
5;Saudi Arabia;Reading;395,96494;5,0452721
6;Saudi Arabia;Reading;399,77062;4,7769155
7;Saudi Arabia;Reading;404,0667;4,4169661
8;Saudi Arabia;Reading;392,61499;5,3904175
9;Saudi Arabia;Reading;394,98427;5,081247
10;Saudi Arabia;Reading;393,63434;4,9932019
11;Saudi Arabia;Reading;396,28199;5,706
12;Saudi Arabia;Reading;393,16696;5,51126
1;Saudi Arabia;Math;381,03697;5,6909229
2;Saudi Arabia;Math;370,65814;5,9105901
3;Saudi Arabia;Math;377,71354;4,69291
4;Saudi Arabia;Math;378,21567;5,3630133
5;Saudi Arabia;Math;370,63818;4,9341339
6;Saudi Arabia;Math;377,43682;4,8368955
7;Saudi Arabia;Math;373,69134;4,7706882
8;Saudi Arabia;Math;371,45935;5,6852046
9;Saudi Arabia;Math;373,16834;5,1663228
10;Saudi Arabia;Math;368,65258;4,9344632
11;Saudi Arabia;Math;373,93458;5,1775225
12;Saudi Arabia;Math;361,24135;5,731156
1;Saudi Arabia;Science;390,54996;5,2666706
2;Saudi Arabia;Science;389,19515;6,1008354
3;Saudi Arabia;Science;390,93565;4,9460915
4;Saudi Arabia;Science;396,32522;5,0117624
5;Saudi Arabia;Science;382,63685;5,4186641
6;Saudi Arabia;Science;388,57066;4,7693968
7;Saudi Arabia;Science;390,55235;4,9038701
8;Saudi Arabia;Science;380,61958;5,821822
9;Saudi Arabia;Science;377,69707;4,5071231
10;Saudi Arabia;Science;383,00722;5,0241377
11;Saudi Arabia;Science;383,93046;5,6349328
12;Saudi Arabia;Science;380,86656;5,2823889
1;OECD;Reading;488,71769;2,651299
2;OECD;Reading;487,35796;2,263254
3;OECD;Reading;487,36356;2,1148588
4;OECD;Reading;488,85242;2,1934132
5;OECD;Reading;485,92537;2,0380806
6;OECD;Reading;483,42581;1,9468628
7;OECD;Reading;486,9756;2,4933673
8;OECD;Reading;486,51391;2,116187
9;OECD;Reading;482,6422;2,1881353
10;OECD;Reading;480,83094;2,1792784
11;OECD;Reading;479,71582;2,3579403
12;OECD;Reading;478,59033;2,2343694
1;OECD;Math;480,70747;2,3497339
2;OECD;Math;480,6373;2,0583264
3;OECD;Math;479,65727;1,883364
4;OECD;Math;480,42546;1,8820941
5;OECD;Math;480,03691;1,659857
6;OECD;Math;477,60837;1,8032254
7;OECD;Math;480,95264;2,1651051
8;OECD;Math;478,35547;1,9922144
9;OECD;Math;473,56008;1,9431847
10;OECD;Math;472,72227;2,0408697
11;OECD;Math;472,79067;2,0274246
12;OECD;Math;470,92901;1,9556509
1;OECD;Science;490,10811;2,477119
2;OECD;Science;488,95132;2,3429361
3;OECD;Science;487,31522;2,0287761
4;OECD;Science;491,113;2,0495196
5;OECD;Science;488,74159;1,8346335
6;OECD;Science;485,65535;1,9511298
7;OECD;Science;487,28026;2,1429264
8;OECD;Science;489,16636;2,0148875
9;OECD;Science;482,71708;1,9569482
10;OECD;Science;482,23986;2,127023
11;OECD;Science;481,47665;2,2202952
12;OECD;Science;480,98221;2,0431914