;Unnamed: 0;variable;gender;score;standard error;compound level indices
0;0;read;female;427.16608152164014;3.277456864950265;other
1;1;read;male;372.84398211578286;3.987401091989076;other
2;2;science;female;401.0865183178029;3.398791376465853;other
3;3;science;male;372.3099042834478;3.940236226403925;other
4;4;math;female;379.96778773792056;3.98336134186292;other
5;5;math;male;366.9197792279869;3.828536569724752;other
6;6;escs;female;-0.6729075266350535;0.0657376033983591;other
7;7;escs;male;-0.7352996123769341;0.0459819810285244;other
8;8;undrem;female;-0.1335113312539445;0.0263085432042381;other
9;9;undrem;male;-0.3977465051799483;0.0230987560801657;other
10;10;metaspam;female;-0.0343424932358252;0.0233110357513593;other
11;11;metaspam;male;-0.2720197519645095;0.0202359889776234;other
12;12;homepos;female;-0.7206347246881055;0.0489226019300838;other
13;13;homepos;male;-0.9312268226588758;0.0348894681484298;other
14;14;cultposs;female;-0.7668102336110523;0.0131265468645624;other
15;15;cultposs;male;-0.8498729588024763;0.0130952885317088;other
16;16;Home educational resources;female;-0.923987308690768;0.0400050521403674;other
17;17;Home educational resources;male;-1.2780142130661545;0.0397651846701758;other
18;18;wealth;female;-0.0185960126744059;0.0503705403362255;other
19;19;wealth;male;-0.0891730069855625;0.0427230241371121;other
20;20;ictres;female;-0.242975932157457;0.0456639302371946;other
21;21;ictres;male;-0.4172100048444027;0.0374174142101607;other
22;22;disclima;female;0.2784514797952439;0.0364771648237369;other
23;23;disclima;male;0.2581753213730061;0.0358898860806277;other
24;24;teachsup;female;0.5662004643160196;0.0292952917490427;other
25;25;teachsup;male;0.5197604230730768;0.0298910776811936;other
26;26;dirins;female;0.5914543434273838;0.0379953864868828;other
27;27;dirins;male;0.4714883030499239;0.0307193103976858;other
28;28;perfeed;female;-0.1502047503542438;0.0306734128504226;other
29;29;perfeed;male;0.07824369471065;0.0298224339799985;other
30;30;emosups;female;0.1385029728075337;0.0277079361138733;other
31;31;emosups;male;-0.1885564819558808;0.0419196819584138;other
32;32;stimread;female;0.3659879428316829;0.0353085105737021;other
33;33;stimread;male;0.2711434803530707;0.0373710031019058;other
34;34;adaptivity;female;0.1301573662049609;0.0315838818706844;student level scale indices
35;35;adaptivity;male;0.058348365485753;0.0340954945264718;student level scale indices
36;36;teachint;female;0.2241766950614517;0.0407353424092511;student level scale indices
37;37;teachint;male;0.2168624232387385;0.0386485609299577;student level scale indices
38;38;joyread;female;0.5469223406344851;0.02115634369082;other
39;39;joyread;male;0.1291718465320795;0.0095449897186765;other
40;40;screadcomp;female;0.2959170038144659;0.0170962225604934;other
41;41;screadcomp;male;0.1445417611312877;0.0267717336192073;other
42;42;screaddiff;female;-0.0756336048957754;0.0173692778866539;other
43;43;screaddiff;male;0.1685331863400861;0.0224697596611941;other
44;44;attlnact;female;0.3970049380129341;0.0166569995554274;other
45;45;attlnact;male;0.2281682777524412;0.0281720352965788;other
46;46;compete;female;0.426495988871975;0.0241810951367214;student level scale indices
47;47;compete;male;0.3143328907258356;0.0351001893459919;student level scale indices
48;48;workmast;female;0.3634720372478797;0.0242479108460715;student level scale indices
49;49;workmast;male;0.0741061663766334;0.0331519327831227;student level scale indices
50;50;Fear of failure;female;-0.4524352605845013;0.0221224245382793;student level scale indices
51;51;Fear of failure;male;-0.2102757122785038;0.0230848148469306;student level scale indices
52;52;eudmo;female;0.4245679563665163;0.0193695744178052;student level scale indices
53;53;eudmo;male;0.2744281846313516;0.0244318518414916;student level scale indices
54;54;swbp;female;0.2063238383301338;0.0197071775337419;student level scale indices
55;55;swbp;male;-0.1419680092126119;0.0372642035988206;student level scale indices
56;56;resilience;female;0.4439137187649775;0.0227892555841937;student level scale indices
57;57;resilience;male;0.114875973707088;0.0360952919463939;student level scale indices
58;58;mastgoal;female;0.4952133803090862;0.0250077225440696;student level scale indices
59;59;mastgoal;male;0.3501624950911506;0.0290760836763305;student level scale indices
