Country,reading_male,reading_female,math_male,math_female,science_male,science_female
Philippines,325.43,352.32,346.39,358.04,355.15,358.51
Morocco,347.02,372.93,368.14,367.28,372.3,381.31
Indonesia,358.09,383.43,373.73,383.45,392.55,399.48
Thailand,372.18,411.11,410.06,426.03,415.2,435.15
Saudi Arabia,372.84,427.17,366.92,379.97,372.31,401.09
Kazakhstan,373.85,400.73,423.77,422.48,393.52,400.9
Jordan,393.06,444.16,396.63,402.78,414.32,443.66
Argentina,393.36,409.41,387.28,371.85,409.05,399.23
Peru,395.36,405.88,407.84,391.51,410.72,397.44
Brazil,400.03,425.71,387.87,379.27,402.85,404.39
Malaysia,401.58,427.71,436.76,443.48,434.37,440.7
United Arab Emirates,403.02,459.77,430.45,439.32,420.4,446.52
Colombia,407.03,417.36,400.89,381.37,419.61,407.29
Mexico,414.68,425.8,414.92,403.17,424.09,414.7
Chile,442.49,462.3,421.09,413.63,445.31,441.81
Ukraine,450.1,483.56,456.43,449.44,469.81,468.07
Turkey,453.1,478.38,455.96,451.02,464.63,472.04
Italy,464.35,489.08,494.09,478.55,469.58,466.33
Russia,465.78,491.02,490.15,485.46,477.42,478.01
OECD Average,472.0,502.0,491.87,486.67,487.52,489.81
Portugal,479.85,504.1,496.93,487.91,494.18,489.1
France,480.32,505.22,498.54,492.18,492.51,493.46
Germany,486.31,512.21,503.31,496.25,502.49,503.57
Australia,487.21,518.57,494.32,488.3,503.73,502.17
Chinese Taipei,491.7,513.6,532.91,529.36,516.32,515.17
Japan,493.4,513.82,532.16,522.03,530.56,527.78
United Kingdom,493.57,513.7,508.03,495.86,505.93,503.47
United States,493.83,517.38,482.46,473.85,502.74,502.0
Poland,495.45,528.24,516.35,514.95,510.9,511.17
Korea,502.84,526.41,527.86,523.81,520.93,516.89
Canada,505.73,534.67,514.45,509.55,516.46,519.56
B-S-J-Z (China),549.15,561.89,596.55,585.75,596.21,584.15
